…
```
## ── Conflicts ──────────────────────────────────────────────────────────────────────────────── tidyverse_conflicts() ──
## ✖ dplyr::filter() masks stats::filter()
## ✖ dplyr::lag()    masks stats::lag()
```

```r
starwars %>% 
  count(homeworld, sort = TRUE)
```

```
## # A tibble: 49 x 2
##    homeworld     n
##    <chr>     <int>
##  1 Naboo        11
##  2 Tatooine     10
##  3 <NA>         10
##  4 Alderaan      3
##  5 Coruscant     3
##  6 Kamino        3
##  7 Corellia      2
##  8 Kashyyyk      2
##  9 Mirial        2
## 10 Ryloth        2
## # … with 39 more rows
```


```r
library(tidyverse)
starwars %>% 
  count(homeworld, sort = TRUE)
#> # A tibble: 49 x 2
#>    homeworld     n
#>    <chr>     <int>
#>  1 Naboo        11
#>  2 Tatooine     10
#>  3 <NA>         10
#>  4 Alderaan      3
#>  5 Coruscant     3
#>  6 Kamino        3
#>  7 Corellia      2
#>  8 Kashyyyk      2
#>  9 Mirial        2
#> 10 Ryloth        2
#> # … with 39 more rows
```
…
