Chapter 2 Applications | Demo book
…
## ── Attaching packages ─────────────────────────────────────────────────────────────────────────── tidyverse 1.2.1 ──

## ✔ ggplot2 3.2.0     ✔ purrr   0.3.2
## ✔ tibble  2.1.3     ✔ dplyr   0.8.3
## ✔ tidyr   0.8.3     ✔ stringr 1.4.0
## ✔ readr   1.3.1     ✔ forcats 0.4.0

## ── Conflicts ────────────────────────────────────────────────────────────────────────────── tidyverse_conflicts() ──
## ✖ dplyr::filter() masks stats::filter()
## ✖ dplyr::lag()    masks stats::lag()

starwars %>% 
  count(homeworld, sort = TRUE)

## # A tibble: 49 x 2
##    homeworld     n
##    <chr>     <int>
##  1 Naboo        11
##  2 Tatooine     10
##  3 <NA>         10
##  4 Alderaan      3
##  5 Coruscant     3
##  6 Kamino        3
##  7 Corellia      2
##  8 Kashyyyk      2
##  9 Mirial        2
## 10 Ryloth        2
## # … with 39 more rows

library(tidyverse)
starwars %>% 
  count(homeworld, sort = TRUE)
#> # A tibble: 49 x 2
#>    homeworld     n
#>    <chr>     <int>
#>  1 Naboo        11
#>  2 Tatooine     10
#>  3 <NA>         10
#>  4 Alderaan      3
#>  5 Coruscant     3
#>  6 Kamino        3
#>  7 Corellia      2
#>  8 Kashyyyk      2
#>  9 Mirial        2
#> 10 Ryloth        2
#> # … with 39 more rows
…
